campaignTrail_temp.states_json = JSON.parse("[{\"model\": \"campaign_trail.state\", \"pk\": 384, \"fields\": {\"name\": \"DuBois\", \"abbr\": \"CT\", \"electoral_votes\": 9, \"popular_votes\": 5, \"poll_closing_time\": 90, \"winner_take_all_flg\": 1, \"election\": 13}}, {\"model\": \"campaign_trail.state\", \"pk\": 386, \"fields\": {\"name\": \"Vanderburgh\", \"abbr\": \"GA\", \"electoral_votes\": 4, \"popular_votes\": 5, \"poll_closing_time\": 90, \"winner_take_all_flg\": 1, \"election\": 13}}, {\"model\": \"campaign_trail.state\", \"pk\": 393, \"fields\": {\"name\": \"Warrick\", \"abbr\": \"MA\", \"electoral_votes\": 16, \"popular_votes\": 20343, \"poll_closing_time\": 90, \"winner_take_all_flg\": 1, \"election\": 13}}, {\"model\": \"campaign_trail.state\", \"pk\": 397, \"fields\": {\"name\": \"Spencer\", \"abbr\": \"NH\", \"electoral_votes\": 6, \"popular_votes\": 2762, \"poll_closing_time\": 90, \"winner_take_all_flg\": 1, \"election\": 13}}, {\"model\": \"campaign_trail.state\", \"pk\": 398, \"fields\": {\"name\": \"Harrison\", \"abbr\": \"NJ\", \"electoral_votes\": 7, \"popular_votes\": 5, \"poll_closing_time\": 60, \"winner_take_all_flg\": 1, \"election\": 13}}, {\"model\": \"campaign_trail.state\", \"pk\": 399, \"fields\": {\"name\": \"Crawford\", \"abbr\": \"NY\", \"electoral_votes\": 12, \"popular_votes\": 5, \"poll_closing_time\": 120, \"winner_take_all_flg\": 1, \"election\": 13}}, {\"model\": \"campaign_trail.state\", \"pk\": 400, \"fields\": {\"name\": \"Gibson\", \"abbr\": \"NC\", \"electoral_votes\": 12, \"popular_votes\": 5, \"poll_closing_time\": 60, \"winner_take_all_flg\": 1, \"election\": 13}}, {\"model\": \"campaign_trail.state\", \"pk\": 402, \"fields\": {\"name\": \"Orange\", \"abbr\": \"PA\", \"electoral_votes\": 15, \"popular_votes\": 4576, \"poll_closing_time\": 0, \"winner_take_all_flg\": 1, \"election\": 13}}, {\"model\": \"campaign_trail.state\", \"pk\": 403, \"fields\": {\"name\": \"Pike\", \"abbr\": \"RI\", \"electoral_votes\": 4, \"popular_votes\": 5, \"poll_closing_time\": 90, \"winner_take_all_flg\": 1, \"election\": 13}}, {\"model\": \"campaign_trail.state\", \"pk\": 404, \"fields\": {\"name\": \"Posey\", \"abbr\": \"SC\", \"electoral_votes\": 7, \"popular_votes\": 5, \"poll_closing_time\": 0, \"winner_take_all_flg\": 1, \"election\": 13}}, {\"model\": \"campaign_trail.state\", \"pk\": 406, \"fields\": {\"name\": \"Perry\", \"abbr\": \"VT\", \"electoral_votes\": 3, \"popular_votes\": 10, \"poll_closing_time\": 180, \"winner_take_all_flg\": 1, \"election\": 13}}]");

(function(e, t, n, r, i) {
    function s(e, t, n, r) {
        r = r instanceof Array ? r : [];
        var i = {};
        for (var s = 0; s < r.length; s++) {
            i[r[s]] = true
        }
        var o = function(e) {
            this.element = e
        };
        o.prototype = n;
        e.fn[t] = function() {
            var n = arguments;
            var r = this;
            this.each(function() {
                var s = e(this);
                var u = s.data("plugin-" + t);
                if (!u) {
                    u = new o(s);
                    s.data("plugin-" + t, u);
                    if (u._init) {
                        u._init.apply(u, n)
                    }
                } else if (typeof n[0] == "string" && n[0].charAt(0) != "_" && typeof u[n[0]] == "function") {
                    var a = Array.prototype.slice.call(n, 1);
                    var f = u[n[0]].apply(u, a);
                    if (n[0] in i) {
                        r = f
                    }
                }
            });
            return r
        }
    }
    var o = 930,
        u = 630,
        a = 70;
    var f = {
        stateStyles: {
            fill: "#333",
            stroke: "#666",
            "stroke-width": 1,
            "stroke-linejoin": "round",
            scale: [1, 1]
        },
        stateHoverStyles: {
            fill: "#33c",
            stroke: "#000",
            scale: [1.1, 1.1]
        },
        stateHoverAnimation: 500,
        stateSpecificStyles: {},
        stateSpecificHoverStyles: {},
        click: null,
        mouseover: null,
        mouseout: null,
        clickState: {},
        mouseoverState: {},
        mouseoutState: {},
        showLabels: true,
        labelWidth: 20,
        labelHeight: 15,
        labelGap: 6,
        labelRadius: 3,
        labelBackingStyles: {
            fill: "#333",
            stroke: "#666",
            "stroke-width": 1,
            "stroke-linejoin": "round",
            scale: [1, 1]
        },
        labelBackingHoverStyles: {
            fill: "#33c",
            stroke: "#000"
        },
        stateSpecificLabelBackingStyles: {},
        stateSpecificLabelBackingHoverStyles: {},
        labelTextStyles: {
            fill: "#fff",
            stroke: "none",
            "font-weight": 300,
            "stroke-width": 0,
            "font-size": "10px"
        },
        labelTextHoverStyles: {},
        stateSpecificLabelTextStyles: {},
        stateSpecificLabelTextHoverStyles: {}
    };
    var l = {
        _init: function(t) {
            this.options = {};
            e.extend(this.options, f, t);
            var n = this.element.width();
            var i = this.element.height();
            var s = this.element.width() / o;
            var l = this.element.height() / u;
            this.scale = Math.min(s, l);
            this.labelAreaWidth = Math.ceil(a / this.scale);
            var c = o + Math.max(0, this.labelAreaWidth - a);
            this.paper = r(this.element.get(0), c, u);
            this.paper.setSize(n, i);
            this.paper.setViewBox(0, 0, c, u, false);
            this.stateHitAreas = {};
            this.stateShapes = {};
            this.topShape = null;
            this._initCreateStates();
            this.labelShapes = {};
            this.labelTexts = {};
            this.labelHitAreas = {};
            if (this.options.showLabels) {
                this._initCreateLabels()
            }
        },
        _initCreateStates: function() {
            var t = this.options.stateStyles;
            var n = this.paper;
            var r = {
				SC: "m 12.880706,120.45238 c -1.299697,-0.67784 -3.248786,-1.23243 -4.3313092,-1.23243 -1.1995244,0 -1.9682238,-0.48332 -1.9682238,-1.23752 0,-0.68063 0.5568821,-1.23752 1.2375173,-1.23752 1.9470758,0 1.4516661,-1.91836 -1.0710971,-4.14759 -4.0191193,-3.55147 -3.9854251,-4.14208 0.2035472,-3.56792 3.9698706,0.54413 5.0908536,-0.61348 2.4582047,-2.53851 -1.3637368,-0.99719 -0.9056753,-5.42119 0.5613101,-5.42119 0.4045658,0 0.7355748,-2.598785 0.7355748,-5.775085 0,-3.30004 -0.353576,-5.77508 -0.8250121,-5.77508 -2.0463461,0 -0.5416102,-1.51955 1.9716231,-1.99104 1.946803,-0.36522 2.946184,-1.08255 3.288778,-2.36059 0.858337,-3.20202 0.563567,-4.72129 -0.929092,-4.78862 -1.146047,-0.0517 -1.190215,-0.16458 -0.214185,-0.54737 1.70709,-0.66949 5.78301,-4.84488 5.78301,-5.92412 0,-0.48867 -0.371254,-0.88848 -0.82501,-0.88848 -0.453758,0 -0.825012,-0.53843 -0.825012,-1.19652 0,-0.65809 -0.50825,-1.49342 -1.129446,-1.85628 -0.621194,-0.36286 -1.388723,-1.49508 -1.705618,-2.51603 -0.568298,-1.8309 -0.473946,-1.85626 6.904524,-1.85626 7.429402,0 7.480697,0.0141 7.480697,2.06252 0,1.97086 0.220002,2.06252 4.950066,2.06252 h 4.950067 v 9.90014 c 0,6.05008 -0.320838,9.90013 -0.825011,9.90013 -0.495179,0 -0.825011,3.30868 -0.825011,8.27601 0,7.128975 -0.200102,8.349835 -1.443769,8.808695 -0.794075,0.29298 -1.668706,0.86636 -1.943628,1.27419 -0.274922,0.40781 -1.980569,0.94009 -3.790327,1.18283 -2.97369,0.39885 -3.575752,0.14759 -6.253804,-2.60991 -5.093272,-5.24437 -7.951661,-2.47226 -6.87721,6.66964 0.588825,5.00999 -0.0094,8.57661 -1.437243,8.56891 -0.518004,-0.002 -2.005214,-0.55968 -3.304911,-1.23752 z",
                GA: "m 45.356698,115.09489 c 0,-0.45376 -0.649696,-0.85432 -1.443769,-0.89015 -0.862497,-0.0388 -1.028575,-0.23265 -0.412506,-0.48125 0.571634,-0.23066 1.031264,-1.81644 1.031264,-3.55798 0,-2.66327 -0.314181,-3.22071 -2.062528,-3.65952 -2.0186,-0.50663 -2.062527,-0.68425 -2.062527,-8.339555 0,-4.66457 0.333015,-7.82188 0.82501,-7.82188 0.492112,0 0.825011,-3.16254 0.825011,-7.83761 v -7.8376 h 9.916786 9.916786 l -0.550929,7.8376 c -0.488658,6.95173 -0.39729,7.83761 0.80836,7.83761 1.124477,0 1.359287,0.93653 1.359287,5.4215 0,5.859205 -0.787589,7.323725 -4.430213,8.237965 -1.641449,0.41198 -2.292264,0.18174 -2.733022,-0.96685 -0.578766,-1.50825 -4.876582,-6.092535 -5.711812,-6.092535 -0.984145,0 -2.750939,2.40416 -3.261376,4.437915 -0.298472,1.1892 -0.873683,2.16219 -1.278249,2.16219 -0.404565,0 -0.735573,0.7425 -0.735573,1.65002 0,0.90751 0.308965,1.65002 0.68659,1.65002 1.280997,0 2.398633,5.29363 1.529073,7.24239 -0.834394,1.86995 -2.215663,2.49818 -2.215663,1.00772 z",
				NC: "m 42.056653,69.719265 v -2.47502 h -4.950066 c -4.730065,0 -4.950067,-0.0917 -4.950067,-2.06254 0,-2.04724 -0.055,-2.06252 -7.425101,-2.06252 -6.050081,0 -7.4251,-0.22917 -7.4251,-1.23752 0,-0.68063 0.715991,-1.23752 1.591093,-1.23752 0.875101,0 2.147975,-0.55687 2.828609,-1.23752 1.413923,-1.41391 3.005398,-1.63235 3.005398,-0.4125 0,0.45376 0.540059,0.82502 1.200134,0.82502 0.746277,0 1.39272,-1.16999 1.709395,-3.0938 0.280094,-1.70158 0.939647,-4.02193 1.465673,-5.15632 1.441737,-3.10915 8.36754,-9.75389 10.803783,-10.36535 1.180437,-0.29627 2.146249,-0.86967 2.146249,-1.27424 0,-0.40457 0.538435,-0.73558 1.196522,-0.73558 0.658087,0 1.607774,-0.6497 2.110412,-1.44376 0.654455,-1.03391 1.036917,-1.15102 1.347262,-0.41251 0.238356,0.5672 1.144946,1.03127 2.014645,1.03127 1.136682,0 1.581271,-0.57991 1.581271,-2.06254 0,-1.13439 0.371256,-2.06252 0.825012,-2.06252 0.453756,0 0.82501,-0.55689 0.82501,-1.23752 0,-0.80209 0.870846,-1.2738 2.475035,-1.34065 l 4.950066,-0.20624 c 2.17503,-0.0906 2.475034,0.17187 2.475034,2.16565 0,1.24782 0.371254,2.26878 0.825011,2.26878 0.453756,0 0.82501,0.74251 0.82501,1.65002 0,1.10002 0.550008,1.65002 1.650024,1.65002 1.405574,0 1.650021,0.55001 1.650021,3.71255 v 3.71256 h 4.537561 4.537563 v 10.31264 10.31264 h -7.012596 -7.012594 v 2.47502 2.47504 h -9.900135 -9.900134 z",
				RI: "m 79.800915,62.550475 c -1.263911,-0.33029 -1.44377,-1.5003 -1.44377,-9.39192 v -9.01463 h -4.537562 -4.537561 v -3.71255 c 0,-3.16254 -0.244448,-3.71255 -1.650022,-3.71255 -0.916679,0 -1.650023,-0.55001 -1.650023,-1.23751 0,-0.68064 -0.330638,-1.23752 -0.73475,-1.23752 -0.404112,0 -0.886446,-1.29939 -1.071854,-2.88754 -0.232476,-1.99132 -0.0044,-2.88754 0.734751,-2.88754 0.589518,0 1.071853,-0.37126 1.071853,-0.82502 0,-0.45374 1.113765,-0.825 2.475033,-0.825 1.650023,0 2.475034,0.4125 2.475034,1.23752 0,0.68063 0.556883,1.23752 1.237517,1.23752 0.680634,0 1.237517,-0.55689 1.237517,-1.23752 0,-0.68063 0.556882,-1.23752 1.237516,-1.23752 0.680634,0 1.237518,0.331 1.237518,0.73557 0,0.40457 0.984358,0.98263 2.187463,1.2846 1.784428,0.44786 2.634323,0.0597 4.612768,-2.10636 1.658501,-1.81582 2.616811,-2.34549 3.031021,-1.67528 0.333146,0.53903 2.526833,1.20759 4.874861,1.48568 2.348028,0.27809 4.269143,0.77875 4.269143,1.11259 0,0.33383 1.113764,0.82972 2.475034,1.10198 l 2.475033,0.495 v 16.93335 16.93336 l -9.281375,-0.0957 c -5.104758,-0.0526 -9.931073,-0.26548 -10.725145,-0.473 z",
				CT: "m 102.2951,48.062725 c 0.008,-11.62045 0.30387,-18.7214 0.75148,-18.01427 1.0473,1.65453 18.07477,1.62644 19.09823,-0.0315 0.49377,-0.79989 3.02778,-1.22026 8.56962,-1.42161 l 7.86852,-0.28589 v 15.67111 15.67113 l -5.77508,0.57996 -5.77507,0.57997 v 3.21632 3.21631 h -12.37517 -12.37517 z",
				MA: "m 84.132223,110.14482 c 0,-0.45375 -0.568534,-0.825 -1.26341,-0.825 -0.694874,0 -1.468399,-0.5342 -1.718944,-1.18711 -0.250543,-0.65291 -1.538284,-1.42492 -2.861646,-1.71558 -1.323361,-0.29065 -2.406111,-0.86583 -2.406111,-1.27817 0,-0.41234 -1.485021,-0.98718 -3.300045,-1.27742 -1.815025,-0.29023 -3.300045,-0.80819 -3.300045,-1.15104 0,-0.34283 -0.74251,-0.81751 -1.650022,-1.05484 -1.466077,-0.38338 -1.650023,-1.12532 -1.650023,-6.655315 0,-4.59324 -0.314967,-6.40009 -1.202207,-6.89662 -0.987147,-0.55243 -1.112495,-2.25699 -0.700706,-9.52862 l 0.5015,-8.85584 h 6.888291 c 6.797501,0 6.88829,-0.0271 6.88829,-2.06252 v -2.06252 H 89.08229 99.807435 v 2.06252 c 0,1.80716 0.357505,2.06252 2.887535,2.06252 h 2.88754 v 4.12506 4.12506 h -2.88754 c -2.65837,0 -2.887535,0.19643 -2.887535,2.47503 0,1.36127 -0.371256,2.47504 -0.825012,2.47504 -0.453756,0 -0.82501,0.97359 -0.82501,2.16354 0,1.79298 -0.204181,1.99409 -1.192106,1.17419 -0.655659,-0.54415 -2.047866,-0.86805 -3.093793,-0.71978 -1.541256,0.21849 -1.987498,0.91245 -2.354449,3.66144 -0.297713,2.2303 -1.215928,4.09913 -2.681287,5.45717 -2.08986,1.93682 -2.228521,2.50861 -2.228521,9.189575 0,5.78266 -0.233042,7.12425 -1.237518,7.12425 -0.680634,0 -1.237516,-0.37126 -1.237516,-0.82502 z",
				NH: "m 96.703331,119.91089 c -0.561524,-0.56152 -1.020952,-1.50357 -1.020952,-2.09346 0,-0.58988 -0.371255,-1.07252 -0.825011,-1.07252 -0.453756,0 -0.825011,-0.52738 -0.825011,-1.17196 0,-0.64458 -1.113766,-1.41658 -2.475034,-1.71558 l -2.475033,-0.5436 v -7.74362 c 0,-7.491345 0.08063,-7.826085 2.475033,-10.275535 1.624444,-1.66178 2.475034,-3.37273 2.475034,-4.97851 0,-1.34562 0.371255,-2.44659 0.825011,-2.44659 0.453756,0 0.825011,0.37126 0.825011,0.82502 0,0.45375 1.113765,0.825 2.475034,0.825 2.200027,0 2.475037,-0.275 2.475037,-2.47503 0,-1.36127 0.37125,-2.47503 0.825,-2.47503 0.45376,0 0.82501,-0.92814 0.82501,-2.06253 0,-1.80717 0.35751,-2.06253 2.88754,-2.06253 h 2.88754 v -5.36257 -5.36258 h 9.48763 c 8.93762,0 9.48763,0.0957 9.48763,1.65003 0,0.90751 -0.37125,1.65002 -0.82501,1.65002 -0.45376,0 -0.82502,1.51154 -0.82502,3.35898 0,3.24022 1.40389,5.71614 3.24112,5.71614 0.52258,0 0.88394,1.87492 0.88394,4.58625 0,2.52245 -0.33071,4.38186 -0.73493,4.13205 -0.40422,-0.24983 -2.21682,1.02766 -4.028,2.83885 -1.81119,1.81118 -3.57261,3.29305 -3.91428,3.29305 -0.34166,0 -1.44222,0.8859 -2.4457,1.96867 -1.05715,1.140685 -3.26557,2.212115 -5.25092,2.547545 -1.88454,0.31839 -3.42644,0.91752 -3.42644,1.33139 0,0.41387 -0.53036,0.7525 -1.17858,0.7525 -0.64823,0 -1.66918,0.48484 -2.26878,1.07742 -0.59961,0.59259 -1.73989,1.32345 -2.53397,1.62414 -1.04585,0.39602 -1.44377,1.46335 -1.44377,3.87263 0,1.82927 -0.37125,3.32594 -0.82501,3.32594 -0.45375,0 -0.825,1.29939 -0.825,2.88754 0,1.9412 -0.38305,2.88754 -1.16877,2.88754 -0.64282,0 -1.297157,0.38518 -1.454082,0.85594 -0.18227,0.54682 -0.654046,0.48723 -1.306267,-0.165 z",
				VT: "m 144.21171,107.55328 c 0,-3.17613 -0.0177,-3.20854 -1.75011,-3.20854 -0.96257,0 -1.75012,0.26252 -1.75012,0.58337 0,0.32086 -1.05831,0.58338 -2.35179,0.58338 -1.55233,0 -2.46594,0.29747 -2.68759,0.87506 -0.51063,1.33069 -1.37769,1.04459 -1.37769,-0.45459 0,-0.73131 -0.52504,-1.70807 -1.16676,-2.17058 -0.64169,-0.46252 -1.16673,-1.30803 -1.16673,-1.87891 0,-0.57087 -0.26252,-1.03796 -0.58338,-1.03796 -0.32085,0 -0.58336,-0.42929 -0.58336,-0.953995 0,-0.5247 -0.65629,-1.56224 -1.45843,-2.30563 -0.86201,-0.79889 -1.45843,-1.99594 -1.45843,-2.92717 v -1.57554 l 1.08933,1.256 c 0.59912,0.6908 1.51793,1.25601 2.0418,1.25601 0.82807,0 0.95247,-0.91337 0.95247,-6.9938 0,-5.77466 -0.17514,-7.19832 -1.00471,-8.16719 -0.55259,-0.64537 -1.47139,-1.17341 -2.0418,-1.17341 -0.82103,0 -1.03709,-0.48615 -1.03709,-2.33348 0,-1.6853 0.24307,-2.33348 0.87505,-2.33348 0.71643,0 0.87506,-1.0047 0.87506,-5.54203 v -5.54202 h 2.33349 c 1.68529,0 2.33349,-0.24307 2.33349,-0.87506 0,-0.72921 1.16673,-0.87506 7.00045,-0.87506 h 7.00045 v 3.79191 3.79192 h 5.54202 5.54202 v 6.41708 c 0,3.88914 0.22981,6.41707 0.58338,6.41707 0.32085,0 0.58336,0.78756 0.58336,1.75012 0,1.28882 -0.27358,1.75011 -1.03795,1.75011 -0.57088,0 -1.41638,0.52504 -1.8789,1.16675 -0.46252,0.6417 -1.30803,1.16674 -1.87889,1.16674 -0.57089,0 -1.03796,0.39377 -1.03796,0.87506 0,0.48128 -0.39378,0.87505 -0.87506,0.87505 -1.27308,0 -1.27308,8.05108 0,8.5396 0.57047,0.21891 0.87506,1.12629 0.87506,2.606875 v 2.27106 h -3.20855 c -2.81962,0 -3.20853,0.14143 -3.20853,1.16674 0,0.64171 -0.26252,1.16675 -0.58338,1.16675 -0.32085,0 -0.58337,0.65629 -0.58337,1.45842 0,0.80214 -0.26252,1.45843 -0.58336,1.45843 -0.32086,0 -0.58338,0.52504 -0.58338,1.16674 0,0.64819 -0.38891,1.16675 -0.87505,1.16675 -0.67177,0 -0.87506,-0.74543 -0.87506,-3.20855 z",
				NY: "m 164.33801,78.676415 c -0.1983,-0.32086 -0.87008,-0.58336 -1.49285,-0.58336 -1.04139,0 -1.13232,-0.44509 -1.13232,-5.54204 v -5.54202 h -5.54203 -5.54202 v -3.79191 -3.79192 h -4.95865 -4.95866 v -7.58381 -7.58383 h 18.0845 18.0845 v -1.75011 c 0,-1.3612 0.25927,-1.75011 1.16674,-1.75011 0.96938,0 1.16675,0.38891 1.16675,2.29905 0,1.26448 0.26251,2.46131 0.58336,2.6596 0.98651,0.60969 0.64701,1.45842 -0.58336,1.45842 -0.90747,0 -1.16675,0.38893 -1.16675,1.75012 0,0.96256 -0.26251,1.75011 -0.58336,1.75011 -0.32086,0 -0.58338,0.77206 -0.58338,1.71569 0,0.94363 0.26252,1.87793 0.58338,2.07623 0.32085,0.1983 0.58336,0.87008 0.58336,1.49285 0,0.62277 -0.26251,1.13232 -0.58336,1.13232 -0.32086,0 -0.58338,1.29709 -0.58338,2.88242 0,1.58533 0.26252,3.04468 0.58338,3.24297 0.94777,0.58577 0.67641,2.62517 -0.34932,2.62517 -0.51298,0 -1.66838,0.78755 -2.56755,1.75012 -1.63586,1.7512 -2.91685,2.26359 -2.91685,1.16674 0,-0.32086 -0.78754,-0.58338 -1.75011,-0.58338 -2.08677,0 -2.31481,1.19276 -0.58338,3.05125 0.64172,0.68879 1.16675,1.63332 1.16675,2.09893 0,0.46563 0.45941,1.19533 1.0209,1.62156 0.84565,0.64195 0.86776,0.77817 0.12879,0.79353 -0.49067,0.01 -1.27054,0.5436 -1.73306,1.1853 -0.46252,0.64171 -1.30802,1.16675 -1.87889,1.16675 -0.57088,0 -1.03796,0.2625 -1.03796,0.58336 0,0.32085 -0.50955,0.58337 -1.13232,0.58337 -0.62277,0 -1.29455,-0.26252 -1.49285,-0.58337 z",
				NJ: "m 200.66505,96.325875 c 0,-0.34031 -0.27845,-0.61876 -0.61876,-0.61876 -0.34032,0 -0.61876,-0.27843 -0.61876,-0.61874 0,-0.34033 -0.27845,-0.61876 -0.61876,-0.61876 -0.34032,0 -0.61876,-0.27845 -0.61876,-0.61876 0,-0.34032 -0.27843,-0.61876 -0.61876,-0.61876 -0.34032,0 -0.61876,-0.27845 -0.61876,-0.61876 0,-0.45834 -0.48125,-0.61876 -1.85627,-0.61876 -1.37502,0 -1.85627,-0.16042 -1.85627,-0.61876 0,-0.48126 -0.55001,-0.61876 -2.47504,-0.61876 -1.92503,0 -2.47503,-0.1375 -2.47503,-0.61876 0,-0.4561 -0.47635,-0.61876 -1.81214,-0.61876 -1.23026,0 -1.88839,-0.19868 -2.04959,-0.61876 -0.13059,-0.34031 -0.5217,-0.61876 -0.86913,-0.61876 -0.34745,0 -0.63172,-0.27843 -0.63172,-0.61875 0,-0.41251 -0.4125,-0.61876 -1.23751,-0.61876 h -1.23751 v -5.56882 c 0,-4.67507 -0.0993,-5.56883 -0.61876,-5.56883 -0.34033,0 -0.61876,-0.27845 -0.61876,-0.61876 0,-0.34032 -0.27844,-0.61875 -0.61876,-0.61875 -0.34032,0 -0.61876,-0.27844 -0.61876,-0.61876 0,-0.34033 -0.27844,-0.61876 -0.61876,-0.61876 -0.34032,0 -0.61876,-0.27844 -0.61876,-0.61876 0,-0.34031 -0.27844,-0.61876 -0.61876,-0.61876 -0.43214,0 -0.61876,-0.43542 -0.61876,-1.44376 0,-1.00835 0.18662,-1.44378 0.61876,-1.44378 0.34032,0 0.61876,-0.27844 0.61876,-0.61876 0,-0.4125 0.4125,-0.61876 1.23752,-0.61876 0.82502,0 1.23752,-0.20624 1.23752,-0.61876 0,-0.34031 0.27843,-0.61875 0.61876,-0.61875 0.48126,0 0.61876,-0.55001 0.61876,-2.47503 0,-1.92504 -0.1375,-2.47504 -0.61876,-2.47504 -0.45835,0 -0.61876,-0.48126 -0.61876,-1.85628 0,-1.78752 0.0459,-1.85626 1.23752,-1.85626 1.1,0 1.23751,-0.13752 1.23751,-1.23752 0,-0.82502 -0.20625,-1.23752 -0.61875,-1.23752 -0.41252,0 -0.61876,-0.4125 -0.61876,-1.23752 0,-0.82502 -0.20626,-1.23752 -0.61876,-1.23752 -0.34033,0 -0.61876,-0.27843 -0.61876,-0.61876 0,-0.34031 0.27843,-0.61876 0.61876,-0.61876 0.41326,0 0.63465,-0.44522 0.6666,-1.34063 0.0264,-0.73736 0.13275,-1.01581 0.2365,-0.61876 0.11433,0.43737 0.58319,0.72188 1.18967,0.72188 0.9707,0 1.00101,-0.0937 1.00101,-3.09379 0,-2.47504 -0.12369,-3.09379 -0.61876,-3.09379 -0.45833,0 -0.61875,-0.48126 -0.61875,-1.85628 v -1.85627 h 9.48763 9.48763 v 6.18758 c 0,5.22507 0.0962,6.18758 0.61876,6.18758 0.34031,0 0.61876,0.27844 0.61876,0.61876 0,0.34032 0.27844,0.61876 0.61875,0.61876 0.34032,0 0.61875,0.27844 0.61875,0.61876 0,0.34032 0.27845,0.61876 0.61876,0.61876 0.34033,0 0.61876,0.27844 0.61876,0.61876 0,0.34031 0.27845,0.61876 0.61876,0.61876 0.34032,0 0.61876,0.27844 0.61876,0.61876 0,0.34031 0.27844,0.61876 0.61876,0.61876 0.34032,0 0.61876,0.27843 0.61876,0.61874 0,0.34033 0.27844,0.61876 0.61876,0.61876 0.34031,0 0.61876,0.27845 0.61876,0.61876 0,0.34032 0.27844,0.61876 0.61876,0.61876 0.8915,0 0.8915,4.75714 0,5.09925 -0.46883,0.1799 -0.61876,0.94025 -0.61876,3.13792 v 2.90049 h 3.09378 c 2.8188,0 3.0938,0.0733 3.0938,0.82501 0,0.45833 -0.275,0.82501 -0.61876,0.82501 -0.50417,0 -0.61876,0.68751 -0.61876,3.71255 0,3.02504 -0.11457,3.71255 -0.61876,3.71255 -0.50417,0 -0.61876,0.68751 -0.61876,3.71255 0,3.02504 -0.11457,3.71254 -0.61876,3.71254 -0.48124,0 -0.61876,0.55002 -0.61876,2.47504 v 2.47504 h -3.71254 c -3.02504,0 -3.71256,0.11457 -3.71256,0.61876 0,0.34031 -0.27843,0.61876 -0.61875,0.61876 -0.41251,0 -0.61875,0.4125 -0.61875,1.2375 0,0.82502 -0.20626,1.23752 -0.61876,1.23752 -0.34032,0 -0.61876,-0.27844 -0.61876,-0.61876 z",
				
				PA: "M 140.71148,24.714605 V 7.2134723 h 16.91776 16.91775 v 17.5011327 17.50113 h -16.91775 -16.91776 z",
				};
            var i = {};
            for (var s in r) {
                i = {};
                if (this.options.stateSpecificStyles[s]) {
                    e.extend(i, t, this.options.stateSpecificStyles[s])
                } else {
                    i = t
                }
                this.stateShapes[s] = n.path(r[s]).attr(i);
                this.topShape = this.stateShapes[s];
                this.stateHitAreas[s] = n.path(r[s]).attr({
                    fill: "#000",
                    "stroke-width": 0,
                    opacity: 0,
                    cursor: "pointer"
                });
                this.stateHitAreas[s].node.dataState = s
            }
            this._onClickProxy = e.proxy(this, "_onClick");
            this._onMouseOverProxy = e.proxy(this, "_onMouseOver"),
            this._onMouseOutProxy = e.proxy(this, "_onMouseOut");
            for (var s in this.stateHitAreas) {
                this.stateHitAreas[s].toFront();
                e(this.stateHitAreas[s].node).bind("mouseout", this._onMouseOutProxy);
                e(this.stateHitAreas[s].node).bind("click", this._onClickProxy);
                e(this.stateHitAreas[s].node).bind("mouseover", this._onMouseOverProxy)
            }
        },
        _initCreateLabels: function() {
            var t = this.paper;
            var r = 860;
            var i = 220;
            var s = this.options.labelWidth;
            var o = this.options.labelHeight;
            var u = this.options.labelGap;
            var a = this.options.labelRadius;
            var f = s / this.scale;
            var l = o / this.scale;
            var c = (s + u) / this.scale;
            var h = (o + u) / this.scale * .5;
            var p = a / this.scale;
            var d = this.options.labelBackingStyles;
            var v = this.options.labelTextStyles;
            var m = {};
            for (var g = 0, y, b, w; g < n.length; ++g) {
                w = n[g];
                y = (g + 1) % 2 * c + r;
                b = g * h + i;
                m = {};
                if (this.options.stateSpecificLabelBackingStyles[w]) {
                    e.extend(m, d, this.options.stateSpecificLabelBackingStyles[w])
                } else {
                    m = d
                }
                this.labelShapes[w] = t.rect(y, b, f, l, p).attr(m);
                m = {};
                if (this.options.stateSpecificLabelTextStyles[w]) {
                    e.extend(m, v, this.options.stateSpecificLabelTextStyles[w])
                } else {
                    e.extend(m, v)
                }
                if (m["font-size"]) {
                    m["font-size"] = parseInt(m["font-size"]) / this.scale + "px"
                }
                this.labelTexts[w] = t.text(y + f / 2, b + l / 2, w).attr(m);
                this.labelHitAreas[w] = t.rect(y, b, f, l, p).attr({
                    fill: "#000",
                    "stroke-width": 0,
                    opacity: 0,
                    cursor: "pointer"
                });
                this.labelHitAreas[w].node.dataState = w
            }
            for (var w in this.labelHitAreas) {
                this.labelHitAreas[w].toFront();
                e(this.labelHitAreas[w].node).bind("mouseout", this._onMouseOutProxy);
                e(this.labelHitAreas[w].node).bind("click", this._onClickProxy);
                e(this.labelHitAreas[w].node).bind("mouseover", this._onMouseOverProxy)
            }
        },
        _getStateFromEvent: function(e) {
            var t = e.target && e.target.dataState || e.dataState;
            return this._getState(t)
        },
        _getState: function(e) {
            var t = this.stateShapes[e];
            var n = this.stateHitAreas[e];
            var r = this.labelShapes[e];
            var i = this.labelTexts[e];
            var s = this.labelHitAreas[e];
            return {
                shape: t,
                hitArea: n,
                name: e,
                labelBacking: r,
                labelText: i,
                labelHitArea: s
            }
        },
        _onMouseOut: function(e) {
            var t = this._getStateFromEvent(e);
            if (!t.hitArea) {
                return
            }
            return !this._triggerEvent("mouseout", e, t)
        },
        _defaultMouseOutAction: function(t) {
            var n = {};
            if (this.options.stateSpecificStyles[t.name]) {
                e.extend(n, this.options.stateStyles, this.options.stateSpecificStyles[t.name])
            } else {
                n = this.options.stateStyles
            }
            t.shape.animate(n, this.options.stateHoverAnimation);
            if (t.labelBacking) {
                var n = {};
                if (this.options.stateSpecificLabelBackingStyles[t.name]) {
                    e.extend(n, this.options.labelBackingStyles, this.options.stateSpecificLabelBackingStyles[t.name])
                } else {
                    n = this.options.labelBackingStyles
                }
                t.labelBacking.animate(n, this.options.stateHoverAnimation)
            }
        },
        _onClick: function(e) {
            var t = this._getStateFromEvent(e);
            if (!t.hitArea) {
                return
            }
            return !this._triggerEvent("click", e, t)
        },
        _onMouseOver: function(e) {
            var t = this._getStateFromEvent(e);
            if (!t.hitArea) {
                return
            }
            return !this._triggerEvent("mouseover", e, t)
        },
        _defaultMouseOverAction: function(t) {
            this.bringShapeToFront(t.shape);
            this.paper.safari();
            var n = {};
            if (this.options.stateSpecificHoverStyles[t.name]) {
                e.extend(n, this.options.stateHoverStyles, this.options.stateSpecificHoverStyles[t.name])
            } else {
                n = this.options.stateHoverStyles
            }
            t.shape.animate(n, this.options.stateHoverAnimation);
            if (t.labelBacking) {
                var n = {};
                if (this.options.stateSpecificLabelBackingHoverStyles[t.name]) {
                    e.extend(n, this.options.labelBackingHoverStyles, this.options.stateSpecificLabelBackingHoverStyles[t.name])
                } else {
                    n = this.options.labelBackingHoverStyles
                }
                t.labelBacking.animate(n, this.options.stateHoverAnimation)
            }
        },
        _triggerEvent: function(t, n, r) {
            var i = r.name;
            var s = false;
            var o = e.Event("usmap" + t + i);
            o.originalEvent = n;
            if (this.options[t + "State"][i]) {
                s = this.options[t + "State"][i](o, r) === false
            }
            if (o.isPropagationStopped()) {
                this.element.trigger(o, [r]);
                s = s || o.isDefaultPrevented()
            }
            if (!o.isPropagationStopped()) {
                var u = e.Event("usmap" + t);
                u.originalEvent = n;
                if (this.options[t]) {
                    s = this.options[t](u, r) === false || s
                }
                if (!u.isPropagationStopped()) {
                    this.element.trigger(u, [r]);
                    s = s || u.isDefaultPrevented()
                }
            }
            if (!s) {
                switch (t) {
                case "mouseover":
                    this._defaultMouseOverAction(r);
                    break;
                case "mouseout":
                    this._defaultMouseOutAction(r);
                    break
                }
            }
            return !s
        },
        trigger: function(e, t, n) {
            t = t.replace("usmap", "");
            e = e.toUpperCase();
            var r = this._getState(e);
            this._triggerEvent(t, n, r)
        },
        bringShapeToFront: function(e) {
            if (this.topShape) {
                e.insertAfter(this.topShape)
            }
            this.topShape = e
        }
    };
    var c = [];
    s(e, "usmap", l, c)
})(jQuery, document, window, Raphael)

